/Users/danieleb/Downloads/Mappe/mappe-util/src/main/java/com/gwcworld/util/EmailProperties.java
/Users/danieleb/Downloads/Mappe/mappe-util/src/main/java/com/gwcworld/util/FormRequestItem.java
/Users/danieleb/Downloads/Mappe/mappe-util/src/main/java/com/gwcworld/util/EmailUtil.java
/Users/danieleb/Downloads/Mappe/mappe-util/src/main/java/com/gwcworld/util/Util.java
/Users/danieleb/Downloads/Mappe/mappe-util/src/main/java/com/gwcworld/util/FormRequest.java
/Users/danieleb/Downloads/Mappe/mappe-util/src/main/java/com/gwcworld/util/MailUtil.java
/Users/danieleb/Downloads/Mappe/mappe-util/src/main/java/com/gwcworld/util/SymmetricCipher.java
/Users/danieleb/Downloads/Mappe/mappe-util/src/main/java/com/gwcworld/util/FileResources.java
/Users/danieleb/Downloads/Mappe/mappe-util/src/main/java/com/gwcworld/util/HibernateJsonBeanProcessorMatcher.java
/Users/danieleb/Downloads/Mappe/mappe-util/src/main/java/com/gwcworld/util/WebUtil.java
/Users/danieleb/Downloads/Mappe/mappe-util/src/main/java/com/gwcworld/util/Md5Util.java
/Users/danieleb/Downloads/Mappe/mappe-util/src/main/java/com/gwcworld/util/HibernateJsonBeanProcessor.java
